patrzeć,1,0.055457540953111936
dom,30,0.045173939263226666
widok,65,0.13001726635684968
szyba,258,0.3879451915222457
budynek,2,0.04339680204758525
widzieć,1,0.026282210579896763
niebo,1,0.10594975868546173
szybka,2,0.06561777271910056