na,1,0.0008188978220242569
boży,1,2.92463507865806e-05
nie,1,8.773905235974181e-05
cały,1,5.84927015731612e-05
przyjść,191,0.000146231753932903
dziecko,61,2.92463507865806e-05
noworodek,1,5.84927015731612e-05
zamach,1,2.92463507865806e-05