oczy,139
miasto,99
małe,91
PUSTE,48
mieszkanie,48
okno,36
dziecko,23
piersi,23
dzieci,20
drzewo,16
oko,16
jabłko,13
owoce,12
pieniądze,11
pole,10
pomieszczenie,8
serce,8
litery,7
male,7
cycki,6
drzwi,6
małę,6
wielkie,6
dziury,5
meble,4
ogromne,4
problemy,4
stopy,4
zwierzę,4
ciasto,3
coś,3
jaja,3
jajko,3
krzesło,3
lody,3
możliwości,3
nadzieje,3
oczekiwania,3
okulary,3
prawdopodobieństwo,3
s,3
słońce,3
buty,2
długi,2
domy,2
drogi,2
dziąsło,2
ego,2
jajo,2
jezioro,2
kłopoty,2
kroki,2
maisto,2
miejsce,2
naczynie,2
okna,2
osiedle,2
pajak,2
pe,2
róże,2
spodnie,2
usta,2
uszy,2
wiadro,2
zbiorowisko,2
znaczenie,2
zwierze,2
?,1
a,1
auto,1
banany,1
bączek,1
big,1
braki,1
budynki,1
danie,1
df,1
dłonie,1
dom,1
dzióry,1
dzwi,1
fory,1
głowy,1
gniazdo,1
góry,1
gry,1
"i małe",1
"i nie mieści się w drzwiach obrotowych",1
"i pełne",1
jablko,1
jagody,1
jajka,1
kolce,1
kolo,1
koło,1
kraje,1
krowa,1
liście,1
litera,1
logike,1
lotnisko,1
łoże,1
łóżko,1
maęł,1
"małe ęę",1
małre,1
mapa,1
masto,1
MASYWNE,1
melony,1
miasti,1
miastp,1
miato,1
mieszkanier,1
mniemanie,1
mozliwości,1
napięcie,1
niebieskie,1
niebo,1
nogi,1
nozdrza,1
obłoki,1
obowiązki,1
onko,1
osoby,1
p,1
palce,1
piersoi,1
pizze,1
planety,1
pokoje,1
prezenty,1
przedszkole,1
przestrzenie,1
pudełko,1
pudło,1
rozczerowanie,1
rozmiary,1
ryby,1
rynny,1
samochody,1
skaly,1
slonce,1
słodycze,1
słonie,1
słowo,1
szczeście,1
szczęscie,1
szczęście,1
średnie,1
trolololo,1
ucho,1
ulice,1
waga,1
wnętrze,1
wrota,1
wsie,1
wymagania,1
wyzwanie,1
"za duże",1
zakupy,1
zaleglosci,1
zauroczenie,1
zęby,1
"zielone oczy",1
znczenie,1