przebić,0.2534898699475073
upadły,0.2534898699475073
rejestracyjny,0.2534898699475073
mruczeć,0.2534898699475073
kula,0.19397259576112286
odbić,0.17520863107859178
napastnica,0.17520863107859178
wybić,0.17520863107859178
motyl,0.17520863107859178
skarżysko,0.14623175393290302
parter,0.14623175393290302
nalepka,0.14623175393290302
zaprawić,0.14623175393290302
wybicie,0.14623175393290302
pieprzyć,0.14623175393290302
niespokojny,0.14623175393290302
bezgłośnie,0.14623175393290302
trzepotać,0.14623175393290302
skrzydełko,0.14623175393290302
mącić,0.14623175393290302
zmierzch,0.14623175393290302
dobiegać,0.14623175393290302
cukierek,0.14623175393290302
wściekły,0.14623175393290302
odeprzeć,0.1384586850774637
gdański,0.13001726635684968
ciemny,0.11644412729017234
nos,0.10594975868546173
spokój,0.10153154954452943
tablica,0.09754924551867017
kontrolny,0.09064478563217895
ostry,0.08485070758702981
mieszkanie,0.07390218236600025
dowód,0.07188199443418261
biała,0.061736800376041276
ściana,0.06056689273190202
czarna,0.06056689273190202
twarz,0.05838577710600138
wieczor,0.05207645782250943
alba,0.05095039860394717
zobaczyć,0.04917008807286743
centrum,0.04605726331013215
kierowca,0.043897804306883774
ulica,0.03539046937455897
sobota,0.035097874073389136
ktoś,0.03247283057482714
ula,0.031118681602165684
robić,0.030698064404434084
zrobić,0.02914864236751261
druga,0.028108411825351176
jeden,0.023099107511233945
coś,0.022212682771365413
pod,0.01604136610303695
przy,0.014637480036724805
się,0.008939507073508416
na,0.008673857796959408
co,0.008401863546261164
oda,0.007597320410155124
być,0.002359596982008786
