zbiorowisko,0.5069797398950145
komórkowy,0.2769173701549274
skupić,0.2534898699475073
identyfikator,0.2534898699475073
oznaczenie,0.2534898699475073
płeć,0.2534898699475073
szacować,0.2534898699475073
wątroba,0.2534898699475073
przyprawa,0.2534898699475073
używka,0.2534898699475073
charakterystyka,0.2534898699475073
mnóstwo,0.2534898699475073
przyjść,0.227462771107004
doniesienie,0.21877616239495523
pasażerski,0.21877616239495523
absolutny,0.21877616239495523
sprecyzować,0.21877616239495523
zaginąć,0.19397259576112286
przynosić,0.19397259576112286
referat,0.19397259576112286
jednakże,0.19397259576112286
producent,0.17525499362925406
obca,0.17520863107859178
luksusowy,0.17520863107859178
ówczesny,0.17520863107859178
łza,0.17520863107859178
ubogi,0.17520863107859178
wywiadowczy,0.160428237195363
zapalenie,0.160428237195363
oparcie,0.160428237195363
tutejszy,0.148429473391183
zwyczaj,0.148429473391183
użytek,0.148429473391183
troja,0.14623175393290302
wznieść,0.14623175393290302
who,0.14623175393290302
umierająca,0.14623175393290302
wirusowy,0.14623175393290302
sebastian,0.14623175393290302
kraszewski,0.14623175393290302
żubr,0.14623175393290302
hodowlany,0.14623175393290302
michaił,0.14623175393290302
honorować,0.14623175393290302
cywil,0.14623175393290302
zaopiekować,0.14623175393290302
minikomputer,0.14623175393290302
palmtop,0.14623175393290302
bezprzewodowy,0.14623175393290302
pik,0.14623175393290302
żarłok,0.14623175393290302
na temat,0.14623175393290302
spożycie,0.14623175393290302
licealny,0.14623175393290302
regresja,0.14623175393290302
stronicować,0.14623175393290302
porównywalny,0.14623175393290302
zaadresować,0.14623175393290302
kilobajt,0.14623175393290302
znawca,0.14623175393290302
nieszczęście,0.14623175393290302
sześćdziesiąt,0.1384586850774637
szwedzki,0.13001726635684968
dostępny,0.13001726635684968
statek,0.12347360075208255
piętnaście,0.1227610460670864
październik,0.12113378546380404
chronić,0.11644412729017234
praktyka,0.11644412729017234
począć,0.11644412729017234
funkcjonować,0.11088574005411685
długość,0.10594975868546173
technologia,0.10594975868546173
iii,0.10153154954452943
często,0.10038584516975084
wczesny,0.09393779234221304
twórca,0.09393779234221304
kino,0.09393779234221304
ośrodek,0.09327988279436872
akurat,0.09064478563217895
obserwować,0.08762749681462703
angielski,0.08762749681462703
turysta,0.08228510611058636
ranna,0.08228510611058636
ogromny,0.07769280177105195
sprzedać,0.07769280177105195
plac,0.0756275092071733
przyjąć,0.07390218236600025
zakładać,0.07369496097332513
najpierw,0.07369496097332513
okoliczność,0.07369496097332513
boży,0.07017717832538639
obowiązujący,0.07017717832538639
nazwisko,0.0685705328406991
komputer,0.06705330284284157
poważny,0.06705330284284157
na,0.06649957644335547
tymczasem,0.06425711416600415
dziedzina,0.06425711416600415
duży,0.06377699090552115
posiadać,0.06296526022146402
odpowiadać,0.06296526022146402
urządzenie,0.06296526022146402
strata,0.061736800376041276
dość,0.06056689273190202
zamierzać,0.059451190040083514
znana,0.059451190040083514
milion,0.05903481336587354
obywatel,0.05838577710600138
dokonać,0.05838577710600138
telefon,0.0573671175614765
sieć,0.0573671175614765
poszczególny,0.0573671175614765
zwierzę,0.05639200839651182
jedynie,0.05456106732693729
rozpocząć,0.054011868795295306
produkcja,0.05287264320694921
bezpieczeństwo,0.05207645782250943
połowa,0.05207645782250943
klasa,0.05130975533450723
budowa,0.04850547814749109
minuta,0.047241522611561663
coraz,0.04663994139718436
typ,0.0454925542214008
firma,0.044795719974551264
rodzic,0.043897804306883774
dzięk,0.043897804306883774
określać,0.043897804306883774
wzgląd,0.043897804306883774
spółka,0.04339680204758525
prawdopodobnie,0.04339680204758525
budynek,0.04339680204758525
trafić,0.04152806425042234
nikt,0.0410918259773981
zdrowie,0.0410918259773981
powód,0.04066693298256042
nazwa,0.04066693298256042
pytanie,0.040252919753024405
liczba,0.03984934665818632
prawo,0.03662518010539576
zgodnie,0.03662518010539576
otrzymać,0.035097874073389136
rok,0.034490400397619324
także,0.033625822267632915
prawa,0.03271318264938414
służba,0.03247283057482714
temat,0.030906573441080054
województwo,0.03049305762109504
jeszcze,0.030420061945981427
kto,0.029898134377390126
kobieta,0.029706236519331488
jaki,0.027464894174476992
móc,0.027013080529627476
polska,0.02680535890062102
dotyczyć,0.026710490202360212
bardzo,0.026551277192741026
jeść,0.026006124844585442
być,0.02595556680209665
osoba,0.02577726925627058
miał,0.02381227876398353
jeden,0.023099107511233945
państwo,0.022977534921320722
godzina,0.02278014725496428
trzy,0.02194200875233226
tychy,0.021766108999271106
droga,0.020937030742236934
cały,0.02032836657649021
który,0.020248675579982722
nad,0.01942813872101839
jaka,0.019107805194280826
ty,0.018800432378192285
się,0.01787901414701683
polski,0.01778920380698522
ten,0.017626956551212263
mówić,0.016501960631282397
pod,0.01604136610303695
przy,0.014637480036724805
inny,0.013886621131609076
tylka,0.012842234634790064
luba,0.012796252501590106
zostać,0.011841547435245353
by,0.010923105459634142
już,0.01040274357339323
że,0.009941958258230535
co,0.008401863546261164
po,0.0075302300319152315
do,0.007295485297379771
nie,0.006656731491870524
on,0.0051230556790378854
